[
   {
      "id":"487498c4.5671c8",
      "type":"tab",
      "label":"NGSIv2 to NGSI-LD Service",
      "disabled":false,
      "info":""
   },
   {
      "id":"445b285c.c784b8",
      "type":"subflow",
      "name":"Header Subflow",
      "info":"",
      "category":"",
      "in":[
         {
            "x":60,
            "y":40,
            "wires":[
               {
                  "id":"18fbd29f.2a23cd"
               }
            ]
         }
      ],
      "out":[
         {
            "x":380,
            "y":40,
            "wires":[
               {
                  "id":"18fbd29f.2a23cd",
                  "port":0
               }
            ]
         }
      ],
      "env":[

      ]
   },
   {
      "id":"c459514c.ef8fc",
      "type":"http request",
      "z":"487498c4.5671c8",
      "name":"",
      "method":"use",
      "ret":"txt",
      "paytoqs":false,
      "url":"",
      "tls":"",
      "persist":false,
      "proxy":"",
      "authType":"",
      "x":1090,
      "y":380,
      "wires":[
         [
            "3e46da53.60164e"
         ]
      ]
   },
   {
      "id":"3cfbe1c9.6085f6",
      "type":"NGSI-v2ToLD",
      "z":"487498c4.5671c8",
      "name":"",
      "x":800,
      "y":60,
      "wires":[
         [
            "990a5e3d.9f638"
         ]
      ]
   },
   {
      "id":"3e46da53.60164e",
      "type":"http response",
      "z":"487498c4.5671c8",
      "name":"Http Response",
      "statusCode":"",
      "headers":{

      },
      "x":1100,
      "y":460,
      "wires":[

      ]
   },
   {
      "id":"973ca28.ab6ea6",
      "type":"http in",
      "z":"487498c4.5671c8",
      "name":"POST /entities/{entityId}/attrs/",
      "url":"/ngsiv2/entities/:entityId/attrs/",
      "method":"post",
      "upload":false,
      "swaggerDoc":"",
      "x":140,
      "y":120,
      "wires":[
         [
            "a0ecd827.68d208"
         ]
      ]
   },
   {
      "id":"19da38a0.40818f",
      "type":"NGSI-v2ToLD",
      "z":"487498c4.5671c8",
      "name":"",
      "x":800,
      "y":260,
      "wires":[
         [
            "ee43ee7b.0ce1a8"
         ]
      ]
   },
   {
      "id":"e35b4140.892258",
      "type":"http in",
      "z":"487498c4.5671c8",
      "name":"PATCH /entities/{entityId}/attrs/{attrId}",
      "url":"/ngsiv2/entities/:entityId/attrs/:attrId",
      "method":"patch",
      "upload":false,
      "swaggerDoc":"",
      "x":170,
      "y":320,
      "wires":[
         [
            "a30f1511.b9ddc8"
         ]
      ]
   },
   {
      "id":"f76006f1.efd078",
      "type":"function",
      "z":"487498c4.5671c8",
      "name":"Set URL",
      "func":"msg.method = \"PATCH\";\nmsg.url = context.global.config.hosts.nvsildendpoint.endpointurl + 'entities/';\n\n// Add entityId - it should always be defined though\nif (typeof msg.req.params.entityId !== 'undefined') {\n    const URI_PARSE = /^(?:[^:\\/?#]+)/i;\n    const scheme = msg.req.params.entityId.match(URI_PARSE)[0];\n    if (scheme !== 'urn' && scheme !== 'http' && scheme !== 'https') {\n        msg.url = msg.url + 'urn:ngsi-ld:' + msg.req.params.entityId + '/attrs/';\n    } else {\n        msg.url = msg.url + msg.req.params.entityId + '/attrs/';\n    }\n}\n\n// Add attrId if defined\nif (typeof msg.req.params.attrId !== 'undefined') {\n    msg.url = msg.url + msg.req.params.attrId;\n}\nreturn msg;",
      "outputs":1,
      "noerr":0,
      "x":780,
      "y":380,
      "wires":[
         [
            "c459514c.ef8fc"
         ]
      ]
   },
   {
      "id":"e52ffad1.457d5",
      "type":"function",
      "z":"487498c4.5671c8",
      "name":"Set URL",
      "func":"msg.method = \"POST\";\nmsg.url = context.global.config.hosts.nvsildendpoint.endpointurl + 'entities/';\n\nif (typeof msg.req.params.entityId !== 'undefined') {\n    const URI_PARSE = /^(?:[^:\\/?#]+)/i;\n    const scheme = msg.req.params.entityId.match(URI_PARSE)[0];\n    if (scheme !== 'urn' && scheme !== 'http' && scheme !== 'https') {\n        msg.url = msg.url + 'urn:ngsi-ld:' + msg.req.params.entityId + '/attrs/';\n    } else {\n        msg.url = msg.url + msg.req.params.entityId + '/attrs/';\n    }\n}\n\nreturn msg;",
      "outputs":1,
      "noerr":0,
      "x":780,
      "y":180,
      "wires":[
         [
            "c459514c.ef8fc"
         ]
      ]
   },
   {
      "id":"c39c1784.499568",
      "type":"http in",
      "z":"487498c4.5671c8",
      "name":"POST /entities/",
      "url":"/ngsiv2/entities/",
      "method":"post",
      "upload":false,
      "swaggerDoc":"",
      "x":100,
      "y":60,
      "wires":[
         [
            "a0ecd827.68d208"
         ]
      ]
   },
   {
      "id":"d34e4de3.88b858",
      "type":"NGSI-v2ToLD",
      "z":"487498c4.5671c8",
      "name":"",
      "x":800,
      "y":460,
      "wires":[
         [
            "2eb91ae2.2a7866"
         ]
      ]
   },
   {
      "id":"8ec4e273.e038f",
      "type":"http in",
      "z":"487498c4.5671c8",
      "name":"DELETE /entities/{entityId}",
      "url":"/ngsiv2/entities/:entityId",
      "method":"delete",
      "upload":false,
      "swaggerDoc":"",
      "x":130,
      "y":460,
      "wires":[
         [
            "96d4ec7a.2dea6"
         ]
      ]
   },
   {
      "id":"edb31ae7.4362e",
      "type":"function",
      "z":"487498c4.5671c8",
      "name":"Set URL",
      "func":"msg.method = \"DELETE\";\nmsg.url = context.global.config.hosts.nvsildendpoint.endpointurl + 'entities/';\n\n\nif (typeof msg.req.params.entityId !== 'undefined') {\n    const URI_PARSE = /^(?:[^:\\/?#]+)/i;\n    const scheme = msg.req.params.entityId.match(URI_PARSE)[0];\n    if (scheme !== 'urn' && scheme !== 'http' && scheme !== 'https') {\n        msg.url = msg.url + 'urn:ngsi-ld' + msg.req.params.entityId;\n    } else {\n        msg.url = msg.url + msg.req.params.entityId;\n    }\n}\n\n\nif (typeof msg.req.params.attrId !== 'undefined') {\n    msg.url = msg.url + '/attrs/' + msg.req.params.attrId;\n}\n\nreturn msg;",
      "outputs":1,
      "noerr":0,
      "x":780,
      "y":580,
      "wires":[
         [
            "c459514c.ef8fc"
         ]
      ]
   },
   {
      "id":"c5406eb8.5a3dd8",
      "type":"http in",
      "z":"487498c4.5671c8",
      "name":"DELETE /entities/{entityId}/attrs/{attrId}",
      "url":"/ngsiv2/entities/:entityId/attrs/:attrId",
      "method":"delete",
      "upload":false,
      "swaggerDoc":"",
      "x":170,
      "y":540,
      "wires":[
         [
            "96d4ec7a.2dea6"
         ]
      ]
   },
   {
      "id":"18fbd29f.2a23cd",
      "type":"function",
      "z":"445b285c.c784b8",
      "name":"Setup Header",
      "func":"// Test if headers were set in previous nodes\nif (typeof msg.headers === 'undefined') {  \n    msg.headers = {};\n}\nmsg.headers[\"content-type\"] = \"application/ld+json\";\n\n// Add AUTH token if defined and parameter set\nif (typeof context.global.config.hosts.nvsildendpoint.xauthtoken === 'undefined' ||\n    typeof context.global.config.hosts.nvsildendpoint.usexauthtoken === 'undefined') {  \n        console.log(\"Security was not correctly defined in either configuration or environment\")\n\n} else {\n    if (context.global.config.hosts.nvsildendpoint.usexauthtoken === true) {\n        msg.headers[\"X-AUTH-TOKEN\"] = context.global.config.hosts.nvsildendpoint.xauthtoken;\n    }\n}\n\nreturn msg;",
      "outputs":1,
      "noerr":0,
      "x":220,
      "y":40,
      "wires":[
         [

         ]
      ]
   },
   {
      "id":"990a5e3d.9f638",
      "type":"subflow:445b285c.c784b8",
      "z":"487498c4.5671c8",
      "name":"Setup Header",
      "env":[

      ],
      "x":800,
      "y":120,
      "wires":[
         [
            "e52ffad1.457d5"
         ]
      ]
   },
   {
      "id":"ee43ee7b.0ce1a8",
      "type":"subflow:445b285c.c784b8",
      "z":"487498c4.5671c8",
      "name":"Setup Header",
      "env":[

      ],
      "x":800,
      "y":320,
      "wires":[
         [
            "f76006f1.efd078"
         ]
      ]
   },
   {
      "id":"2eb91ae2.2a7866",
      "type":"subflow:445b285c.c784b8",
      "z":"487498c4.5671c8",
      "name":"Setup Header",
      "env":[

      ],
      "x":800,
      "y":520,
      "wires":[
         [
            "edb31ae7.4362e"
         ]
      ]
   },
   {
      "id":"b431ed46.ba5f18",
      "type":"http in",
      "z":"487498c4.5671c8",
      "name":"PATCH /entities/{entityId}/attrs/",
      "url":"/ngsiv2/entities/:entityId/attrs",
      "method":"patch",
      "upload":false,
      "swaggerDoc":"",
      "x":150,
      "y":260,
      "wires":[
         [
            "a30f1511.b9ddc8"
         ]
      ]
   },
   {
      "id":"96d4ec7a.2dea6",
      "type":"function",
      "z":"487498c4.5671c8",
      "name":"payload checker",
      "func":"if (msg.payload) {\n    return [msg, null]\n} else {\n    return [null, msg];   \n}",
      "outputs":2,
      "noerr":0,
      "x":490,
      "y":460,
      "wires":[
         [
            "d34e4de3.88b858"
         ],
         [
            "2eb91ae2.2a7866"
         ]
      ]
   },
   {
      "id":"a0ecd827.68d208",
      "type":"function",
      "z":"487498c4.5671c8",
      "name":"payload checker",
      "func":"if (msg.payload) {\n    return [msg, null];\n} else {\n    msg.payload = \"No data provided\";\n    msg.statusCode = 422;\n    return [null, msg];   \n}",
      "outputs":2,
      "noerr":0,
      "x":490,
      "y":60,
      "wires":[
         [
            "3cfbe1c9.6085f6"
         ],
         [
            "1fa43870.408718"
         ]
      ]
   },
   {
      "id":"a30f1511.b9ddc8",
      "type":"function",
      "z":"487498c4.5671c8",
      "name":"payload checker",
      "func":"if (msg.payload) {\n    return [msg, null];\n} else {\n    msg.payload = \"No data provided\";\n    msg.statusCode = 422;\n    return [null, msg];   \n}",
      "outputs":2,
      "noerr":0,
      "x":490,
      "y":260,
      "wires":[
         [
            "19da38a0.40818f"
         ],
         [
            "1fa43870.408718"
         ]
      ]
   },
   {
      "id":"1fa43870.408718",
      "type":"http response",
      "z":"487498c4.5671c8",
      "name":"Http Response",
      "statusCode":"",
      "headers":{

      },
      "x":480,
      "y":160,
      "wires":[

      ]
   }
]
